…
```
## Parsed with column specification:
## cols(
##   hari_promosi = col_double(),
##   jumlah_pengguna = col_double()
## )
```

```r
# print dataset
df
```

```
## # A tibble: 120 x 6
##    hari_promosi jumlah_keuntung~ hari_promosi1 jumlah_komplain
##           <dbl>            <dbl>         <dbl>           <dbl>
##  1            1         21275219             1             256
##  2            2         11630734             2             136
##  3            3         14589289             3             174
##  4            4          9410724             4             110
##  5            5         14288265             5             171
##  6            6         13222574             6             161
##  7            7         18274420             7             224
##  8            8         17681269             8             218
##  9            9         15121308             9             186
## 10           10          9456333            10             116
## # ... with 110 more rows, and 2 more variables: hari_promosi2 <dbl>,
## #   jumlah_pengguna <dbl>
```
…
