…
Normalisasi (membuat range data menjadi 0 sampai 1) atau standarisasi (menseragamkan simpangan baku dan mean) perlu dilakukan dalam pembangunan model ini sebab algoritma yang digunakan adalah algoritma jarak. Dalam model kali ini dataset akan dilakukan standarisasi sebab distribusi dataset yang memilikik kemencengan positif (terdapat outlier). 

Proses lain yang perlu dilakukan adalah merubah seluruh jenis data menjadi numerik. Berikut adalah sintaks untuk melakukannya:


```r
# Data preprocessing
df_clean <- mutate_if(df_clean, is.factor, as.numeric)

# print
df_clean
```

```
## # A tibble: 669 x 5
##    alamat_rumah harga_rumah jumlah_kamar jumlah_bangunan luas_lahan
##           <dbl>       <dbl>        <dbl>           <dbl>      <dbl>
##  1            2  2000000000            3             127        126
##  2            5   999000000            3              62         72
##  3            5  1019000000            3              66         72
##  4            4  1230900000            2              60         90
##  5            2  1400000000            2              94         90
##  6            5  5200000000            4             335        589
##  7            5  1140750000            3             130        111
##  8            1   200000000            2              38         78
##  9            5  4501000000            4             250        265
## 10            3   875425000            3              70         95
## # ... with 659 more rows
```
…
