…
```r
df
```

```
## # A tibble: 468 x 4
##    kota                 id                              hdi       revenue
##    <chr>                <chr>                         <dbl>         <dbl>
##  1 Ambon, Kota          IDN_Ambon_Kota_18139           79.6  848613000000
##  2 Balikpapan, Kota     IDN_Balikpapan_Kota_18130      79.9 2422210000000
##  3 Banda Aceh, Kota     IDN_Banda_Aceh_Kota_73705      79    928241000000
##  4 Bandar Lampung, Kota IDN_Bandar_Lampung_Kota_18134  77.2 1688410000000
##  5 Bandung, Kota        IDN_Bandung_Kota_18015         77.3 4332090000000
##  6 Banjar, Kota         IDN_Banjar_Kota_73707          72.8  620917000000
##  7 Banjarbaru, Kota     IDN_Banjarbaru_Kota_73706      76.9  747567000000
##  8 Banjarmasin, Kota    IDN_Banjarmasin_Kota_18113     75.3 1285110000000
##  9 Batam, Kota          IDN_Batam_Kota_73708           78.7 1749110000000
## 10 Batu, Kota           IDN_Batu_Kota_73709            76.1  553618000000
## # ... with 458 more rows
```
…
# Data Cleaning

Pada dataset terdapat kolom `id` yang menjelaskan kode id kota atau kabupaten. Kolom tersebut tidak akan digunakan dalam analisa karena sudah terwakili dengan nama kota atau kabupaten.


```r
df_clean <- df %>% select(-id)
df_clean
```

```
## # A tibble: 468 x 3
##    kota                   hdi       revenue
##    <chr>                <dbl>         <dbl>
##  1 Ambon, Kota           79.6  848613000000
##  2 Balikpapan, Kota      79.9 2422210000000
##  3 Banda Aceh, Kota      79    928241000000
##  4 Bandar Lampung, Kota  77.2 1688410000000
##  5 Bandung, Kota         77.3 4332090000000
##  6 Banjar, Kota          72.8  620917000000
##  7 Banjarbaru, Kota      76.9  747567000000
##  8 Banjarmasin, Kota     75.3 1285110000000
##  9 Batam, Kota           78.7 1749110000000
## 10 Batu, Kota            76.1  553618000000
## # ... with 458 more rows
```
…
